{
    "jets": [
        {
            "name": "absEta_btagJes",
            "shift": 1.0347720911121983,
            "scale": 0.7913887391851984,
            "default": 1.0359233617782593
        },
        {
            "name": "pt_btagJes",
            "shift": 730379.0823131865,
            "scale": 1206380.4979286895,
            "default": 731132.4375
        },
        {
            "name": "JetFitter_isDefaults",
            "shift": 0.0,
            "scale": 1.0,
            "default": null
        },
        {
            "name": "JetFitter_mass",
            "shift": 2733.648278649389,
            "scale": 2048.9201838969843,
            "default": 2730.982421875
        },
        {
            "name": "JetFitter_energyFraction",
            "shift": 0.30848508440053596,
            "scale": 0.34942671565823136,
            "default": 0
        },
        {
            "name": "JetFitter_significance3d",
            "shift": 12.076572840447195,
            "scale": 19.796415189711286,
            "default": 0
        },
        {
            "name": "JetFitter_nVTX",
            "shift": 0.064419225605505,
            "scale": 0.9353009990925774,
            "default": -1
        },
        {
            "name": "JetFitter_nSingleTracks",
            "shift": 0.26253066634093686,
            "scale": 1.2375667409635003,
            "default": -1
        },
        {
            "name": "JetFitter_nTracksAtVtx",
            "shift": 0.7099543055598265,
            "scale": 1.8627715610741848,
            "default": -1
        },
        {
            "name": "JetFitter_N2Tpair",
            "shift": 1.851772421103377,
            "scale": 4.8226735878691676,
            "default": -1
        },
        {
            "name": "JetFitter_deltaR",
            "shift": 0.06668649001311955,
            "scale": 0.05530786782325743,
            "default": 0.06653932482004166
        },
        {
            "name": "JetFitterSecondaryVertex_isDefaults",
            "shift": 0.0,
            "scale": 1.0,
            "default": null
        },
        {
            "name": "JetFitterSecondaryVertex_nTracks",
            "shift": 1.0761353075668,
            "scale": 1.1194571385951038,
            "default": 0
        },
        {
            "name": "JetFitterSecondaryVertex_mass",
            "shift": 564.4403455555425,
            "scale": 551.0751976513969,
            "default": 565.1431884765625
        },
        {
            "name": "JetFitterSecondaryVertex_energy",
            "shift": 120203.48407214461,
            "scale": 664659.9062585431,
            "default": 118402.765625
        },
        {
            "name": "JetFitterSecondaryVertex_energyFraction",
            "shift": 0.12864884068372404,
            "scale": 0.18673596512869797,
            "default": 0
        },
        {
            "name": "JetFitterSecondaryVertex_displacement3d",
            "shift": 24.982913155206866,
            "scale": 47.417353798594085,
            "default": 25.071285247802734
        },
        {
            "name": "JetFitterSecondaryVertex_displacement2d",
            "shift": 14.40457580591248,
            "scale": 26.627823076201334,
            "default": 14.420431137084961
        },
        {
            "name": "JetFitterSecondaryVertex_maximumTrackRelativeEta",
            "shift": 4.386295087841666,
            "scale": 1.138014482631333,
            "default": 4.389641284942627
        },
        {
            "name": "JetFitterSecondaryVertex_minimumTrackRelativeEta",
            "shift": 3.9526532305837714,
            "scale": 1.0188729110437544,
            "default": 3.9554975032806396
        },
        {
            "name": "JetFitterSecondaryVertex_averageTrackRelativeEta",
            "shift": 4.167365397446636,
            "scale": 1.041598903661062,
            "default": 4.170416355133057
        },
        {
            "name": "JetFitterSecondaryVertex_maximumAllJetTrackRelativeEta",
            "shift": 5.466512088764133,
            "scale": 1.1466559461611256,
            "default": 5.466655731201172
        },
        {
            "name": "JetFitterSecondaryVertex_minimumAllJetTrackRelativeEta",
            "shift": 2.337745598819163,
            "scale": 0.41629472899534053,
            "default": 2.3387393951416016
        },
        {
            "name": "JetFitterSecondaryVertex_averageAllJetTrackRelativeEta",
            "shift": 3.4667848144170854,
            "scale": 0.6219251566993296,
            "default": 3.4674229621887207
        },
        {
            "name": "SV1_isDefaults",
            "shift": 0.0,
            "scale": 1.0,
            "default": null
        },
        {
            "name": "SV1_NGTinSvx",
            "shift": 0.8704801950620443,
            "scale": 2.2531271231711507,
            "default": -1
        },
        {
            "name": "SV1_masssvx",
            "shift": 1678.2435704705658,
            "scale": 748.3553672425768,
            "default": 1680.3990478515625
        },
        {
            "name": "SV1_N2Tpair",
            "shift": 1.6070381457744725,
            "scale": 4.755496632863959,
            "default": -1
        },
        {
            "name": "SV1_efracsvx",
            "shift": 0.178945664946507,
            "scale": 0.257871543213538,
            "default": 0
        },
        {
            "name": "SV1_deltaR",
            "shift": 0.10717395250058308,
            "scale": 0.24681884971894047,
            "default": 0.1071169301867485
        },
        {
            "name": "SV1_Lxy",
            "shift": 17.52868918886684,
            "scale": 21.732056447645792,
            "default": 17.602853775024414
        },
        {
            "name": "SV1_L3d",
            "shift": 32.69524647570742,
            "scale": 43.95239515796008,
            "default": 32.7513427734375
        },
        {
            "name": "SV1_significance3d",
            "shift": 41.79446411155978,
            "scale": 46.23323311376033,
            "default": 41.804264068603516
        },
        {
            "name": "IP2D_pu",
            "shift": 0.020247868090933062,
            "scale": 0.06652168995898247,
            "default": 0.020337561145424843
        },
        {
            "name": "IP2D_pc",
            "shift": 0.019339716883052298,
            "scale": 0.058665173804259674,
            "default": 0.01945304498076439
        },
        {
            "name": "IP2D_pb",
            "shift": 0.025540963011567167,
            "scale": 0.08104547070281627,
            "default": 0.02560766041278839
        },
        {
            "name": "IP2D_cu",
            "shift": -32.715412491964145,
            "scale": 293.6434563440791,
            "default": -32.532291412353516
        },
        {
            "name": "IP2D_bu",
            "shift": 52.758304576433744,
            "scale": 260.68594164025967,
            "default": 52.977535247802734
        },
        {
            "name": "IP2D_bc",
            "shift": 47.387497835927334,
            "scale": 255.56160587169452,
            "default": 47.62110137939453
        },
        {
            "name": "IP3D_pu",
            "shift": 0.02065283542565275,
            "scale": 0.06867927415738256,
            "default": 0.020748550072312355
        },
        {
            "name": "IP3D_pc",
            "shift": 0.01925289513808723,
            "scale": 0.05850533037768031,
            "default": 0.01937977783381939
        },
        {
            "name": "IP3D_pb",
            "shift": 0.027047523850458614,
            "scale": 0.08416820414099119,
            "default": 0.027043018490076065
        },
        {
            "name": "IP3D_cu",
            "shift": 4.462062855883751,
            "scale": 83.83090781063348,
            "default": 4.377797603607178
        },
        {
            "name": "IP3D_bu",
            "shift": -9.01564738364953,
            "scale": 121.43853117664271,
            "default": -8.732239723205566
        },
        {
            "name": "IP3D_bc",
            "shift": -13.984238832409082,
            "scale": 114.0901724413834,
            "default": -13.65922737121582
        },
        {
            "name": "DL1_no_ip_pu",
            "shift": 0.337765155864856,
            "scale": 0.28105892365924584,
            "default": 0.33807480335235596
        },
        {
            "name": "DL1_no_ip_pb",
            "shift": 0.33213075314600854,
            "scale": 0.3448653080447355,
            "default": 0.33256995677948
        },
        {
            "name": "DL1_no_ip_pc",
            "shift": 0.3301040875481698,
            "scale": 0.22076300354376893,
            "default": 0.3293554484844208
        }
    ]
}