{
    "jets": [
        {
            "name": "absEta_btagJes",
            "shift": 1.0426709414869444,
            "scale": 0.8036276209702006,
            "default": 1.048646092414856
        },
        {
            "name": "pt_btagJes",
            "shift": 731164.2565220019,
            "scale": 1206946.2978624618,
            "default": 733739.4375
        },
        {
            "name": "JetFitter_isDefaults",
            "shift": 0.0,
            "scale": 1.0,
            "default": null
        },
        {
            "name": "JetFitter_mass",
            "shift": 2735.8401794599577,
            "scale": 2049.4816195600038,
            "default": 2720.6171875
        },
        {
            "name": "JetFitter_energyFraction",
            "shift": 0.3079005694819017,
            "scale": 0.3491917862193228,
            "default": 0
        },
        {
            "name": "JetFitter_significance3d",
            "shift": 12.043565412261962,
            "scale": 19.77335590517505,
            "default": 0
        },
        {
            "name": "JetFitter_nVTX",
            "shift": 0.061794749050135656,
            "scale": 0.9352291402501882,
            "default": -1
        },
        {
            "name": "JetFitter_nSingleTracks",
            "shift": 0.26085241106845064,
            "scale": 1.2380817557031483,
            "default": -1
        },
        {
            "name": "JetFitter_nTracksAtVtx",
            "shift": 0.705199271546915,
            "scale": 1.8602229226089382,
            "default": -1
        },
        {
            "name": "JetFitter_N2Tpair",
            "shift": 1.8467722763250924,
            "scale": 4.837107706597906,
            "default": -1
        },
        {
            "name": "JetFitter_deltaR",
            "shift": 0.06657229958382004,
            "scale": 0.055129089546722854,
            "default": 0.06704039126634598
        },
        {
            "name": "JetFitterSecondaryVertex_isDefaults",
            "shift": 0.0,
            "scale": 1.0,
            "default": null
        },
        {
            "name": "JetFitterSecondaryVertex_nTracks",
            "shift": 1.0732517703456834,
            "scale": 1.1176334306661133,
            "default": 0
        },
        {
            "name": "JetFitterSecondaryVertex_mass",
            "shift": 564.2502840751097,
            "scale": 550.4860893476967,
            "default": 575.7025756835938
        },
        {
            "name": "JetFitterSecondaryVertex_energy",
            "shift": 120756.06639990995,
            "scale": 674722.7979848506,
            "default": 117102.3828125
        },
        {
            "name": "JetFitterSecondaryVertex_energyFraction",
            "shift": 0.12828159567133224,
            "scale": 0.18652254428189338,
            "default": 0
        },
        {
            "name": "JetFitterSecondaryVertex_displacement3d",
            "shift": 25.02283546655874,
            "scale": 47.449887745244176,
            "default": 25.859920501708984
        },
        {
            "name": "JetFitterSecondaryVertex_displacement2d",
            "shift": 14.428540450840005,
            "scale": 26.60213538709275,
            "default": 14.859861373901367
        },
        {
            "name": "JetFitterSecondaryVertex_maximumTrackRelativeEta",
            "shift": 4.386498508617384,
            "scale": 1.1362245904500274,
            "default": 4.393397808074951
        },
        {
            "name": "JetFitterSecondaryVertex_minimumTrackRelativeEta",
            "shift": 3.9533201314726205,
            "scale": 1.017782776526734,
            "default": 3.949014663696289
        },
        {
            "name": "JetFitterSecondaryVertex_averageTrackRelativeEta",
            "shift": 4.167883771410913,
            "scale": 1.040142695691422,
            "default": 4.168830871582031
        },
        {
            "name": "JetFitterSecondaryVertex_maximumAllJetTrackRelativeEta",
            "shift": 5.466836089887376,
            "scale": 1.1454677123292274,
            "default": 5.465452194213867
        },
        {
            "name": "JetFitterSecondaryVertex_minimumAllJetTrackRelativeEta",
            "shift": 2.337201312406274,
            "scale": 0.41668258995375007,
            "default": 2.3331658840179443
        },
        {
            "name": "JetFitterSecondaryVertex_averageAllJetTrackRelativeEta",
            "shift": 3.466846259365134,
            "scale": 0.6221104489573166,
            "default": 3.4644246101379395
        },
        {
            "name": "SV1_isDefaults",
            "shift": 0.0,
            "scale": 1.0,
            "default": null
        },
        {
            "name": "SV1_NGTinSvx",
            "shift": 0.8711852194463037,
            "scale": 2.2528974797380252,
            "default": -1
        },
        {
            "name": "SV1_masssvx",
            "shift": 1676.3873356773797,
            "scale": 747.4130030292633,
            "default": 1686.1517333984375
        },
        {
            "name": "SV1_N2Tpair",
            "shift": 1.6030351036756731,
            "scale": 4.746972124124137,
            "default": -1
        },
        {
            "name": "SV1_efracsvx",
            "shift": 0.17861059597678078,
            "scale": 0.25765727920381604,
            "default": 0
        },
        {
            "name": "SV1_deltaR",
            "shift": 0.10796151308286815,
            "scale": 0.2491311255643619,
            "default": 0.11360759288072586
        },
        {
            "name": "SV1_Lxy",
            "shift": 17.522281367080552,
            "scale": 21.70639150625406,
            "default": 17.453142166137695
        },
        {
            "name": "SV1_L3d",
            "shift": 32.8566161403682,
            "scale": 44.07414030054078,
            "default": 32.22475051879883
        },
        {
            "name": "SV1_significance3d",
            "shift": 41.65585881771694,
            "scale": 46.05571104560325,
            "default": 41.27485656738281
        },
        {
            "name": "IP2D_pu",
            "shift": 0.02018031161843009,
            "scale": 0.06655486140880532,
            "default": 0.02006765641272068
        },
        {
            "name": "IP2D_pc",
            "shift": 0.019330431094761753,
            "scale": 0.05880387385150582,
            "default": 0.01962893083691597
        },
        {
            "name": "IP2D_pb",
            "shift": 0.025527440945096177,
            "scale": 0.08094578294943554,
            "default": 0.026774538680911064
        },
        {
            "name": "IP2D_cu",
            "shift": -32.382432598361575,
            "scale": 293.6964704490993,
            "default": -33.38142395019531
        },
        {
            "name": "IP2D_bu",
            "shift": 52.71698947189299,
            "scale": 260.5075069424388,
            "default": 50.43790817260742
        },
        {
            "name": "IP2D_bc",
            "shift": 47.27383650585916,
            "scale": 255.34432574677408,
            "default": 46.89705276489258
        },
        {
            "name": "IP3D_pu",
            "shift": 0.02058761612975713,
            "scale": 0.06873532225140137,
            "default": 0.020515993237495422
        },
        {
            "name": "IP3D_pc",
            "shift": 0.019241811053012092,
            "scale": 0.058618155724754616,
            "default": 0.019706793129444122
        },
        {
            "name": "IP3D_pb",
            "shift": 0.02702987864993979,
            "scale": 0.08409973009832321,
            "default": 0.02839580737054348
        },
        {
            "name": "IP3D_cu",
            "shift": 4.556073894094082,
            "scale": 83.99543537584417,
            "default": 4.491215229034424
        },
        {
            "name": "IP3D_bu",
            "shift": -9.002914243094033,
            "scale": 121.56607076476705,
            "default": -8.395813941955566
        },
        {
            "name": "IP3D_bc",
            "shift": -13.98858642568531,
            "scale": 114.13315244827719,
            "default": -13.308892250061035
        },
        {
            "name": "DL1_no_ip_pu",
            "shift": 0.33864018675802005,
            "scale": 0.2814580013803784,
            "default": 0.3431380093097687
        },
        {
            "name": "DL1_no_ip_pb",
            "shift": 0.3324075186500543,
            "scale": 0.3449195457571363,
            "default": 0.32917481660842896
        },
        {
            "name": "DL1_no_ip_pc",
            "shift": 0.32895230532075975,
            "scale": 0.2203302099312886,
            "default": 0.32768720388412476
        }
    ]
}