{
    "jets": [
        {
            "name": "absEta_btagJes",
            "shift": 1.0481708436522252,
            "scale": 0.8061670224743822,
            "default": 1.0225976705551147
        },
        {
            "name": "pt_btagJes",
            "shift": 731461.421873201,
            "scale": 1207094.7431179746,
            "default": 732325.8125
        },
        {
            "name": "JetFitter_isDefaults",
            "shift": 0.0,
            "scale": 1.0,
            "default": null
        },
        {
            "name": "JetFitter_mass",
            "shift": 2739.452276851919,
            "scale": 2050.337464028578,
            "default": 2773.400634765625
        },
        {
            "name": "JetFitter_energyFraction",
            "shift": 0.3080384232457766,
            "scale": 0.3494300189512654,
            "default": 0
        },
        {
            "name": "JetFitter_significance3d",
            "shift": 12.08617033753018,
            "scale": 19.81893295339134,
            "default": 0
        },
        {
            "name": "JetFitter_nVTX",
            "shift": 0.0629958025917322,
            "scale": 0.9362051948360149,
            "default": -1
        },
        {
            "name": "JetFitter_nSingleTracks",
            "shift": 0.2602761705839406,
            "scale": 1.2386157272833394,
            "default": -1
        },
        {
            "name": "JetFitter_nTracksAtVtx",
            "shift": 0.7083979582879429,
            "scale": 1.8632728754285741,
            "default": -1
        },
        {
            "name": "JetFitter_N2Tpair",
            "shift": 1.8511967343039724,
            "scale": 4.835523862697005,
            "default": -1
        },
        {
            "name": "JetFitter_deltaR",
            "shift": 0.06656917726393126,
            "scale": 0.05520116989636011,
            "default": 0.06731969863176346
        },
        {
            "name": "JetFitterSecondaryVertex_isDefaults",
            "shift": 0.0,
            "scale": 1.0,
            "default": null
        },
        {
            "name": "JetFitterSecondaryVertex_nTracks",
            "shift": 1.0744835119124447,
            "scale": 1.1190389160770227,
            "default": 0
        },
        {
            "name": "JetFitterSecondaryVertex_mass",
            "shift": 564.9554119183963,
            "scale": 550.2595815386921,
            "default": 559.1823120117188
        },
        {
            "name": "JetFitterSecondaryVertex_energy",
            "shift": 120638.12083542494,
            "scale": 667810.6882499229,
            "default": 119855.1640625
        },
        {
            "name": "JetFitterSecondaryVertex_energyFraction",
            "shift": 0.12856425759777793,
            "scale": 0.1869526029448075,
            "default": 0
        },
        {
            "name": "JetFitterSecondaryVertex_displacement3d",
            "shift": 25.049883395951888,
            "scale": 47.51701800378098,
            "default": 24.58087921142578
        },
        {
            "name": "JetFitterSecondaryVertex_displacement2d",
            "shift": 14.423244097661518,
            "scale": 26.67946349890723,
            "default": 14.176952362060547
        },
        {
            "name": "JetFitterSecondaryVertex_maximumTrackRelativeEta",
            "shift": 4.390507253074469,
            "scale": 1.1364883753886195,
            "default": 4.345521450042725
        },
        {
            "name": "JetFitterSecondaryVertex_minimumTrackRelativeEta",
            "shift": 3.9558863798276875,
            "scale": 1.0178894027503416,
            "default": 3.915609121322632
        },
        {
            "name": "JetFitterSecondaryVertex_averageTrackRelativeEta",
            "shift": 4.171166769688108,
            "scale": 1.0402597238464304,
            "default": 4.128130912780762
        },
        {
            "name": "JetFitterSecondaryVertex_maximumAllJetTrackRelativeEta",
            "shift": 5.471760247221234,
            "scale": 1.1453346490542369,
            "default": 5.44376802444458
        },
        {
            "name": "JetFitterSecondaryVertex_minimumAllJetTrackRelativeEta",
            "shift": 2.3402350774323755,
            "scale": 0.41676497110460753,
            "default": 2.330273389816284
        },
        {
            "name": "JetFitterSecondaryVertex_averageAllJetTrackRelativeEta",
            "shift": 3.470483054921121,
            "scale": 0.621066073257175,
            "default": 3.4535913467407227
        },
        {
            "name": "SV1_isDefaults",
            "shift": 0.0,
            "scale": 1.0,
            "default": null
        },
        {
            "name": "SV1_NGTinSvx",
            "shift": 0.8732652102350371,
            "scale": 2.250623218436005,
            "default": -1
        },
        {
            "name": "SV1_masssvx",
            "shift": 1674.9856867326048,
            "scale": 747.1182519075409,
            "default": 1662.0465087890625
        },
        {
            "name": "SV1_N2Tpair",
            "shift": 1.610188606224087,
            "scale": 4.753240775197427,
            "default": -1
        },
        {
            "name": "SV1_efracsvx",
            "shift": 0.178870028063764,
            "scale": 0.2576601670030167,
            "default": 0
        },
        {
            "name": "SV1_deltaR",
            "shift": 0.10697603028031528,
            "scale": 0.24488032408660668,
            "default": 0.11210876703262329
        },
        {
            "name": "SV1_Lxy",
            "shift": 17.515406770602898,
            "scale": 21.712481971185824,
            "default": 17.263837814331055
        },
        {
            "name": "SV1_L3d",
            "shift": 32.933434760321354,
            "scale": 44.28419945754631,
            "default": 33.15497589111328
        },
        {
            "name": "SV1_significance3d",
            "shift": 41.837260673720024,
            "scale": 46.36331988147014,
            "default": 41.857269287109375
        },
        {
            "name": "IP2D_pu",
            "shift": 0.02007167070165218,
            "scale": 0.06625545179250603,
            "default": 0.019910940900444984
        },
        {
            "name": "IP2D_pc",
            "shift": 0.019202015168906402,
            "scale": 0.05849803168692216,
            "default": 0.01895667053759098
        },
        {
            "name": "IP2D_pb",
            "shift": 0.02546854493832342,
            "scale": 0.08114062537216306,
            "default": 0.024471161887049675
        },
        {
            "name": "IP2D_cu",
            "shift": -32.048258233874925,
            "scale": 293.9608564422322,
            "default": -30.671836853027344
        },
        {
            "name": "IP2D_bu",
            "shift": 52.871380614544364,
            "scale": 260.9911075057862,
            "default": 52.36458206176758
        },
        {
            "name": "IP2D_bc",
            "shift": 47.08750908974554,
            "scale": 255.23980208898496,
            "default": 45.6961784362793
        },
        {
            "name": "IP3D_pu",
            "shift": 0.0204675038232643,
            "scale": 0.06838021787594402,
            "default": 0.02006468176841736
        },
        {
            "name": "IP3D_pc",
            "shift": 0.019127314772172745,
            "scale": 0.058406601885573096,
            "default": 0.018702473491430283
        },
        {
            "name": "IP3D_pb",
            "shift": 0.026966594224373475,
            "scale": 0.08419185490048472,
            "default": 0.026801245287060738
        },
        {
            "name": "IP3D_cu",
            "shift": 4.549971310833431,
            "scale": 84.04480310114451,
            "default": 4.848158359527588
        },
        {
            "name": "IP3D_bu",
            "shift": -9.032120830211937,
            "scale": 121.67289800715497,
            "default": -9.260759353637695
        },
        {
            "name": "IP3D_bc",
            "shift": -14.009811468938564,
            "scale": 114.23578525679906,
            "default": -14.263130187988281
        },
        {
            "name": "dipsrun420220707_pu",
            "shift": 0.35054197726006653,
            "scale": 0.30014810418549626,
            "default": 0.3521597981452942
        },
        {
            "name": "dipsrun420220707_pc",
            "shift": 0.3790970416453607,
            "scale": 0.22304605388185,
            "default": 0.3761000335216522
        },
        {
            "name": "dipsrun420220707_pb",
            "shift": 0.2703609727499222,
            "scale": 0.3226239103361445,
            "default": 0.2717401385307312
        }
    ]
}