{
    "jets": [
        {
            "name": "absEta_btagJes",
            "shift": 0.9152346253395081,
            "scale": 0.6306358575820923,
            "default": 0.9152346253395081
        },
        {
            "name": "pt_btagJes",
            "shift": 739525.3125,
            "scale": 1217338.5,
            "default": 739525.3125
        },
        {
            "name": "JetFitter_isDefaults",
            "shift": 0.0,
            "scale": 1.0,
            "default": null
        },
        {
            "name": "JetFitter_mass",
            "shift": 2718.58935546875,
            "scale": 2073.88525390625,
            "default": 2718.589599609375
        },
        {
            "name": "JetFitter_energyFraction",
            "shift": 0.32032233476638794,
            "scale": 0.3501999080181122,
            "default": 0
        },
        {
            "name": "JetFitter_significance3d",
            "shift": 12.558414459228516,
            "scale": 20.037952423095703,
            "default": 0
        },
        {
            "name": "JetFitter_nVTX",
            "shift": 0.1057075634598732,
            "scale": 0.9289623498916626,
            "default": -1
        },
        {
            "name": "JetFitter_nSingleTracks",
            "shift": 0.3063364624977112,
            "scale": 1.2330526113510132,
            "default": -1
        },
        {
            "name": "JetFitter_nTracksAtVtx",
            "shift": 0.7794366478919983,
            "scale": 1.8706731796264648,
            "default": -1
        },
        {
            "name": "JetFitter_N2Tpair",
            "shift": 1.92830491065979,
            "scale": 4.787039756774902,
            "default": -1
        },
        {
            "name": "JetFitter_deltaR",
            "shift": 0.06687802076339722,
            "scale": 0.05615798383951187,
            "default": 0.06687803566455841
        },
        {
            "name": "JetFitterSecondaryVertex_isDefaults",
            "shift": 0.0,
            "scale": 1.0,
            "default": null
        },
        {
            "name": "JetFitterSecondaryVertex_nTracks",
            "shift": 1.1220579147338867,
            "scale": 1.125288963317871,
            "default": 0
        },
        {
            "name": "JetFitterSecondaryVertex_mass",
            "shift": 568.4580078125,
            "scale": 562.8872680664062,
            "default": 568.4579467773438
        },
        {
            "name": "JetFitterSecondaryVertex_energy",
            "shift": 118808.3671875,
            "scale": 686934.625,
            "default": 118808.359375
        },
        {
            "name": "JetFitterSecondaryVertex_energyFraction",
            "shift": 0.13485682010650635,
            "scale": 0.18906721472740173,
            "default": 0
        },
        {
            "name": "JetFitterSecondaryVertex_displacement3d",
            "shift": 24.329998016357422,
            "scale": 47.576725006103516,
            "default": 24.330001831054688
        },
        {
            "name": "JetFitterSecondaryVertex_displacement2d",
            "shift": 14.268242835998535,
            "scale": 27.2193660736084,
            "default": 14.268242835998535
        },
        {
            "name": "JetFitterSecondaryVertex_maximumTrackRelativeEta",
            "shift": 4.368703842163086,
            "scale": 1.156214714050293,
            "default": 4.368703842163086
        },
        {
            "name": "JetFitterSecondaryVertex_minimumTrackRelativeEta",
            "shift": 3.929760456085205,
            "scale": 1.0343431234359741,
            "default": 3.9297611713409424
        },
        {
            "name": "JetFitterSecondaryVertex_averageTrackRelativeEta",
            "shift": 4.1470046043396,
            "scale": 1.0571576356887817,
            "default": 4.1470046043396
        },
        {
            "name": "JetFitterSecondaryVertex_maximumAllJetTrackRelativeEta",
            "shift": 5.438551425933838,
            "scale": 1.166229486465454,
            "default": 5.43855094909668
        },
        {
            "name": "JetFitterSecondaryVertex_minimumAllJetTrackRelativeEta",
            "shift": 2.321021318435669,
            "scale": 0.4122590124607086,
            "default": 2.321021318435669
        },
        {
            "name": "JetFitterSecondaryVertex_averageAllJetTrackRelativeEta",
            "shift": 3.4442741870880127,
            "scale": 0.6286386251449585,
            "default": 3.444274425506592
        },
        {
            "name": "SV1_isDefaults",
            "shift": 0.0,
            "scale": 1.0,
            "default": null
        },
        {
            "name": "SV1_NGTinSvx",
            "shift": 0.8359458446502686,
            "scale": 2.2337965965270996,
            "default": -1
        },
        {
            "name": "SV1_masssvx",
            "shift": 1676.511962890625,
            "scale": 740.8320922851562,
            "default": 1676.5120849609375
        },
        {
            "name": "SV1_N2Tpair",
            "shift": 1.56724214553833,
            "scale": 4.731660842895508,
            "default": -1
        },
        {
            "name": "SV1_efracsvx",
            "shift": 0.18031297624111176,
            "scale": 0.2606624662876129,
            "default": 0
        },
        {
            "name": "SV1_deltaR",
            "shift": 0.09980292618274689,
            "scale": 0.2355412393808365,
            "default": 0.09980292618274689
        },
        {
            "name": "SV1_Lxy",
            "shift": 17.781476974487305,
            "scale": 21.708959579467773,
            "default": 17.781478881835938
        },
        {
            "name": "SV1_L3d",
            "shift": 29.724597930908203,
            "scale": 39.56733703613281,
            "default": 29.724599838256836
        },
        {
            "name": "SV1_significance3d",
            "shift": 42.37202453613281,
            "scale": 45.89995574951172,
            "default": 42.372032165527344
        },
        {
            "name": "DL1_pu",
            "shift": 0.26488280296325684,
            "scale": 0.23395688831806183,
            "default": 0.26488280296325684
        },
        {
            "name": "DL1_pb",
            "shift": 0.4411564767360687,
            "scale": 0.22784991562366486,
            "default": 0.4411565661430359
        },
        {
            "name": "DL1_pc",
            "shift": 0.2939606010913849,
            "scale": 0.1578129529953003,
            "default": 0.2939606010913849
        }
    ]
}